<?xml version="1.0" encoding="utf-8"?>
<!-- Generator: Adobe Illustrator 22.0.1, SVG Export Plug-In . SVG Version: 6.00 Build 0)  -->
<svg version="1.1" id="Layer_1" xmlns="http://www.w3.org/2000/svg" xmlns:xlink="http://www.w3.org/1999/xlink" x="0px" y="0px"
	 viewBox="0 0 38 23.8" style="enable-background:new 0 0 38 23.8;" xml:space="preserve">
<style type="text/css">
	.st0{fill:#FFFFFF;}
</style>
<title>mastercard-outline</title>
<path class="st0" d="M33.2,1C35.3,1,37,2.7,37,4.8V19c0,2.1-1.7,3.8-3.8,3.8l0,0H4.8C2.7,22.8,1,21.1,1,19l0,0V4.8
	C1,2.7,2.7,1,4.8,1L33.2,1 M33.2,0H4.8C2.1,0,0,2.2,0,4.8V19c0,2.6,2.1,4.8,4.8,4.8h28.5c2.6,0,4.8-2.1,4.8-4.8V4.8
	C38,2.2,35.9,0,33.2,0z"/>
<path class="st0" d="M18.1,8c-2.2-1.5-5.1-0.9-6.6,1.2s-0.9,5.1,1.2,6.6c1.6,1.1,3.7,1.1,5.4,0C16.1,13.6,16.1,10.2,18.1,8z"/>
<circle class="st0" cx="22.6" cy="11.9" r="4.8"/>
<path class="st0" d="M13.6,19.6v-0.9c0-0.3-0.2-0.5-0.5-0.6c0,0,0,0-0.1,0c-0.2,0-0.4,0.1-0.5,0.2c-0.1-0.2-0.3-0.3-0.5-0.2
	c-0.2,0-0.3,0.1-0.4,0.2v-0.2h-0.3v1.4h0.3v-0.6c0-0.2,0.1-0.3,0.3-0.4c0,0,0,0,0.1,0c0.2,0,0.3,0.1,0.3,0.4v0.8h0.3v-0.8
	c0-0.2,0.1-0.3,0.3-0.4c0,0,0,0,0.1,0c0.2,0,0.3,0.1,0.3,0.4v0.8L13.6,19.6z M18.1,18.2h-0.5v-0.4h-0.3v0.4H17v0.3h0.3v0.6
	c0,0.3,0.1,0.5,0.5,0.5c0.1,0,0.3,0,0.4-0.1l-0.1-0.3c-0.1,0-0.2,0.1-0.3,0.1c-0.1,0-0.2-0.1-0.2-0.2v-0.6h0.5V18.2z M20.7,18.2
	c-0.2,0-0.3,0.1-0.4,0.2v-0.2H20v1.4h0.3v-0.8c0-0.2,0.1-0.4,0.3-0.4c0.1,0,0.1,0,0.2,0l0.1-0.3C20.9,18.2,20.8,18.2,20.7,18.2
	L20.7,18.2z M16.8,18.3c-0.2-0.1-0.4-0.2-0.6-0.1c-0.4,0-0.6,0.2-0.6,0.4c0,0.2,0.2,0.4,0.5,0.4h0.1c0.2,0,0.2,0.1,0.2,0.1
	c0,0.1-0.1,0.2-0.3,0.2c-0.2,0-0.3,0-0.5-0.1l-0.1,0.2c0.2,0.1,0.4,0.2,0.6,0.2c0.4,0,0.6-0.2,0.6-0.5s-0.2-0.4-0.5-0.4h-0.1
	c-0.1,0-0.2,0-0.2-0.1s0.1-0.2,0.3-0.2s0.3,0,0.4,0.1L16.8,18.3z M25,18.2c-0.2,0-0.3,0.1-0.4,0.2v-0.2h-0.3v1.4h0.3v-0.8
	c0-0.2,0.1-0.4,0.3-0.4c0.1,0,0.1,0,0.2,0l0.1-0.3C25.1,18.2,25,18.2,25,18.2L25,18.2z M21,18.9c0,0.4,0.3,0.7,0.7,0.7
	c0,0,0,0,0.1,0c0.2,0,0.4-0.1,0.5-0.2l-0.1-0.2c-0.1,0.1-0.2,0.1-0.4,0.1c-0.2,0-0.4-0.2-0.4-0.5c0-0.2,0.2-0.4,0.4-0.4
	c0.1,0,0.3,0,0.4,0.1l0.1-0.2c-0.1-0.1-0.3-0.2-0.5-0.2C21.4,18.2,21.1,18.5,21,18.9L21,18.9L21,18.9z M23.9,18.9v-0.7h-0.3v0.2
	c-0.1-0.1-0.3-0.2-0.4-0.2c-0.4,0-0.7,0.3-0.7,0.7c0,0.4,0.3,0.7,0.7,0.7c0.2,0,0.3-0.1,0.4-0.2v0.2h0.3V18.9z M22.8,18.9
	c0-0.2,0.2-0.4,0.4-0.4c0.2,0,0.4,0.2,0.4,0.4c0,0.2-0.2,0.4-0.4,0.4C23,19.4,22.8,19.2,22.8,18.9L22.8,18.9z M19.1,18.2
	c-0.4,0-0.7,0.3-0.7,0.7s0.3,0.7,0.7,0.7l0,0c0.2,0,0.4-0.1,0.6-0.2l-0.1-0.2c-0.1,0.1-0.3,0.1-0.4,0.1c-0.2,0-0.4-0.1-0.4-0.3h1
	v-0.1C19.8,18.5,19.5,18.2,19.1,18.2L19.1,18.2z M19.1,18.5c0.2,0,0.4,0.1,0.4,0.3l0,0h-0.7C18.7,18.6,18.9,18.5,19.1,18.5
	L19.1,18.5z M26.7,18.9v-1.3h-0.3v0.7c-0.1-0.1-0.3-0.2-0.4-0.2c-0.4,0-0.7,0.3-0.7,0.7c0,0.4,0.3,0.7,0.7,0.7
	c0.2,0,0.3-0.1,0.4-0.2v0.2h0.3V18.9z M27.2,19.4C27.3,19.4,27.3,19.4,27.2,19.4c0.1,0,0.1,0,0.1,0l0,0v0.1l0,0l0,0c0,0,0,0-0.1,0
	s-0.1,0-0.1-0.1v-0.1l0,0C27.2,19.4,27.2,19.4,27.2,19.4L27.2,19.4L27.2,19.4z M27.2,19.7C27.3,19.7,27.3,19.7,27.2,19.7
	C27.3,19.7,27.3,19.6,27.2,19.7c0.1-0.1,0.1-0.1,0.1-0.2l0,0l0,0l0,0l0,0C27.1,19.5,27.1,19.6,27.2,19.7
	C27.2,19.6,27.2,19.7,27.2,19.7L27.2,19.7L27.2,19.7z M27.2,19.5C27.3,19.5,27.3,19.5,27.2,19.5C27.3,19.5,27.3,19.5,27.2,19.5
	C27.3,19.5,27.3,19.6,27.2,19.5C27.3,19.6,27.3,19.6,27.2,19.5l0.1,0.1l0,0L27.2,19.5L27.2,19.5v0.1l0,0V19.5L27.2,19.5z M27.2,19.5
	L27.2,19.5L27.2,19.5C27.3,19.6,27.3,19.6,27.2,19.5C27.3,19.6,27.3,19.5,27.2,19.5C27.3,19.5,27.3,19.5,27.2,19.5
	C27.3,19.5,27.3,19.5,27.2,19.5L27.2,19.5z M25.6,18.9c0-0.2,0.2-0.4,0.4-0.4s0.4,0.2,0.4,0.4c0,0.2-0.2,0.4-0.4,0.4
	C25.8,19.4,25.6,19.2,25.6,18.9L25.6,18.9z M15.3,18.9v-0.7H15v0.2c-0.1-0.1-0.3-0.2-0.4-0.2c-0.4,0-0.7,0.3-0.7,0.7
	c0,0.4,0.3,0.7,0.7,0.7c0.2,0,0.3-0.1,0.4-0.2v0.2h0.3V18.9z M14.2,18.9c0-0.2,0.2-0.4,0.4-0.4s0.4,0.2,0.4,0.4
	c0,0.2-0.2,0.4-0.4,0.4C14.4,19.4,14.2,19.2,14.2,18.9L14.2,18.9L14.2,18.9z"/>
</svg>
