<?xml version="1.0" encoding="utf-8"?>
<!-- Generator: Adobe Illustrator 22.0.1, SVG Export Plug-In . SVG Version: 6.00 Build 0)  -->
<svg version="1.1" id="Layer_1" xmlns="http://www.w3.org/2000/svg" xmlns:xlink="http://www.w3.org/1999/xlink" x="0px" y="0px"
	 viewBox="0 0 38 23.8" style="enable-background:new 0 0 38 23.8;" xml:space="preserve">
<style type="text/css">
	.st0{fill:#FFFFFF;}
</style>
<title>paypal-outline</title>
<path class="st0" d="M33.2,1C35.3,1,37,2.7,37,4.8V19c0,2.1-1.7,3.8-3.8,3.8l0,0H4.8C2.7,22.8,1,21.1,1,19l0,0V4.8
	C1,2.7,2.7,1,4.8,1H33.2 M33.2,0H4.8C2.1,0,0,2.2,0,4.8V19c0,2.6,2.1,4.8,4.8,4.8h28.5c2.6,0,4.8-2.1,4.8-4.8V4.8
	C38,2.2,35.9,0,33.2,0z"/>
<path class="st0" d="M10.4,8.9C10,8.5,9.5,8.3,8.9,8.4H6.8c-0.1,0-0.3,0.1-0.3,0.2l-0.8,5.3c0,0.1,0,0.2,0.1,0.2l0,0h1
	c0.1,0,0.2-0.1,0.3-0.2l0.2-1.4c0-0.1,0.1-0.2,0.3-0.2h0.6c1.2,0.1,2.2-0.7,2.3-1.9v-0.1C10.8,9.8,10.7,9.3,10.4,8.9z M9.1,10.3
	c-0.1,0.8-0.7,0.8-1.2,0.8H7.6l0.2-1.4c0-0.1,0.1-0.2,0.2-0.2h0.1c0.4,0,0.7,0,0.9,0.2C9.2,9.9,9.2,10.1,9.1,10.3z M15.1,10.3h-1
	c-0.1,0-0.2,0.1-0.2,0.1v0.3l-0.1-0.1c-0.3-0.3-0.7-0.5-1.2-0.4c-1.1,0-2.1,0.9-2.2,2c-0.1,0.5,0,1.1,0.4,1.5
	c0.3,0.4,0.8,0.5,1.2,0.5c0.5,0,1-0.2,1.4-0.6v0.3c0,0.1,0,0.2,0.1,0.2l0,0h0.9c0.1,0,0.3-0.1,0.3-0.2l0.5-3.4
	C15.3,10.4,15.2,10.3,15.1,10.3C15.2,10.2,15.1,10.2,15.1,10.3L15.1,10.3z M13.7,12.2c-0.1,0.6-0.5,1-1.1,1c-0.2,0-0.5-0.1-0.7-0.3
	s-0.2-0.5-0.2-0.7c0.1-0.6,0.5-1,1.1-1c0.2,0,0.5,0.1,0.7,0.3S13.8,12,13.7,12.2z M20.4,10.3h-1c-0.1,0-0.2,0-0.2,0.1l-1.4,2l-0.6-2
	c0-0.1-0.2-0.2-0.3-0.2h-1c-0.1,0-0.2,0.1-0.2,0.2c0,0,0,0,0,0.1l1.1,3.2l-1,1.5c-0.1,0.1,0,0.2,0,0.2h0.1h1c0.1,0,0.2,0,0.2-0.1
	l3.3-4.8C20.5,10.4,20.4,10.3,20.4,10.3z M25.1,8.9c-0.4-0.4-0.9-0.6-1.5-0.5h-2.1c-0.1,0-0.3,0.1-0.3,0.2l-0.7,5.3
	c0,0.1,0,0.2,0.1,0.2l0,0h1.1c0.1,0,0.2-0.1,0.2-0.2l0.2-1.5c0-0.1,0.1-0.2,0.3-0.2H23c1.2,0.1,2.2-0.7,2.3-1.9v-0.1
	C25.5,9.7,25.4,9.3,25.1,8.9z M23.9,10.3c-0.1,0.8-0.7,0.8-1.2,0.8h-0.3l0.2-1.4c0-0.1,0.1-0.2,0.2-0.1h0.1c0.4,0,0.7,0,0.9,0.2
	C23.9,9.9,23.9,10.1,23.9,10.3L23.9,10.3z M29.8,10.3h-1c-0.1,0-0.2,0.1-0.2,0.1v0.3l-0.1-0.1c-0.3-0.3-0.7-0.5-1.2-0.4
	c-1.1,0-2.1,0.9-2.2,2c-0.1,0.5,0,1.1,0.4,1.5c0.3,0.4,0.8,0.5,1.2,0.5c0.5,0,1-0.2,1.4-0.6v0.3c0,0.1,0,0.2,0.1,0.2l0,0h0.9
	c0.1,0,0.3-0.1,0.3-0.2L29.8,10.3C30,10.4,30,10.3,29.8,10.3L29.8,10.3L29.8,10.3z M28.4,12.2c-0.1,0.6-0.5,1-1.1,1
	c-0.2,0-0.5-0.1-0.7-0.3s-0.2-0.5-0.2-0.7c0.1-0.6,0.5-1,1.1-1c0.2,0,0.5,0.1,0.7,0.3S28.5,12,28.4,12.2z M32.1,8.3h-1
	c-0.1,0-0.2,0.1-0.2,0.1l-0.8,5.5c0,0.1,0,0.2,0.1,0.2l0,0h0.9c0.1,0,0.3-0.1,0.3-0.2l0.8-5.3C32.3,8.4,32.2,8.4,32.1,8.3L32.1,8.3z
	"/>
</svg>
